{
  "batchcomplete": "",
  "continue": {
    "sroffset": 10,
    "continue": "-||"
  },
  "query": {
    "searchinfo": {
      "totalhits": 60448
    },
    "search": [
      {
        "ns": 0,
        "title": "Liverpool",
        "pageid": 18081,
        "size": 214108,
        "wordcount": 19966,
        "snippet": "<span class=\"searchmatch\">Liverpool</span> is a city and metropolitan borough in North West England, with an estimated population of 491,500. Its metropolitan area is the fifth-largest",
        "timestamp": "2019-06-25T18:37:02Z"
      },
      {
        "ns": 0,
        "title": "Liverpool F.C.",
        "pageid": 18119,
        "size": 97637,
        "wordcount": 7911,
        "snippet": "<span class=\"searchmatch\">Liverpool</span> Football Club is a professional football club in <span class=\"searchmatch\">Liverpool</span>, England, that competes in the Premier League, the top tier of English football. The",
        "timestamp": "2019-07-07T19:55:39Z"
      },
      {
        "ns": 0,
        "title": "University of Liverpool",
        "pageid": 156512,
        "size": 43649,
        "wordcount": 4141,
        "snippet": "The University of <span class=\"searchmatch\">Liverpool</span> is a public university based in the city of <span class=\"searchmatch\">Liverpool</span>, England. Founded as a college in 1881, it gained its royal charter",
        "timestamp": "2019-07-05T12:22:50Z"
      },
      {
        "ns": 0,
        "title": "City of Liverpool",
        "pageid": 1523041,
        "size": 1061,
        "wordcount": 133,
        "snippet": "City of <span class=\"searchmatch\">Liverpool</span> or <span class=\"searchmatch\">Liverpool</span> City may refer to: <span class=\"searchmatch\">Liverpool</span>, a city in Merseyside, United Kingdom formally in Lancashire <span class=\"searchmatch\">Liverpool</span>, New South Wales, a",
        "timestamp": "2019-06-10T16:31:00Z"
      },
      {
        "ns": 0,
        "title": "2019\u201320 Liverpool F.C. season",
        "pageid": 60897531,
        "size": 24791,
        "wordcount": 447,
        "snippet": "v <span class=\"searchmatch\">Liverpool</span> Bradford City v <span class=\"searchmatch\">Liverpool</span> Borussia Dortmund v <span class=\"searchmatch\">Liverpool</span> Sevilla v <span class=\"searchmatch\">Liverpool</span> Sporting CP v <span class=\"searchmatch\">Liverpool</span> Napoli v <span class=\"searchmatch\">Liverpool</span> Lyon v <span class=\"searchmatch\">Liverpool</span> First",
        "timestamp": "2019-07-08T13:44:14Z"
      },
      {
        "ns": 0,
        "title": "Architecture of Liverpool",
        "pageid": 23568925,
        "size": 173976,
        "wordcount": 18602,
        "snippet": "The architecture of <span class=\"searchmatch\">Liverpool</span> is rooted in the city's development into a major port of the British Empire. It encompasses a variety of architectural styles",
        "timestamp": "2019-07-08T15:45:33Z"
      },
      {
        "ns": 0,
        "title": "Liverpool F.C. Reserves and Academy",
        "pageid": 6133766,
        "size": 32252,
        "wordcount": 1608,
        "snippet": "<span class=\"searchmatch\">Liverpool</span> F.C. Reserves is the reserve team of <span class=\"searchmatch\">Liverpool</span>. It is the most senior level of the <span class=\"searchmatch\">Liverpool</span> academy beneath the first team. In the summer of",
        "timestamp": "2019-07-04T13:14:58Z"
      },
      {
        "ns": 0,
        "title": "Liverpool (store)",
        "pageid": 4470985,
        "size": 10533,
        "wordcount": 714,
        "snippet": "El Puerto de <span class=\"searchmatch\">Liverpool</span> S.A.B. de C.V., commonly known as <span class=\"searchmatch\">Liverpool</span>, is a mid-to-high end retailer which operates the largest chain of department stores",
        "timestamp": "2019-06-25T20:42:46Z"
      },
      {
        "ns": 0,
        "title": "Liverpool (disambiguation)",
        "pageid": 256716,
        "size": 2384,
        "wordcount": 266,
        "snippet": "<span class=\"searchmatch\">Liverpool</span> is a city in Merseyside, England, historically in Lancashire. <span class=\"searchmatch\">Liverpool</span> may also refer to: <span class=\"searchmatch\">Liverpool</span>, New South Wales City of <span class=\"searchmatch\">Liverpool</span> (New",
        "timestamp": "2019-06-22T10:53:21Z"
      },
      {
        "ns": 0,
        "title": "2018\u201319 Liverpool F.C. season",
        "pageid": 57476308,
        "size": 154132,
        "wordcount": 9457,
        "snippet": "The 2018\u20132019 season was <span class=\"searchmatch\">Liverpool</span>'s 127th season in existence, and their 57th consecutive season in the top flight of English football. It was also the",
        "timestamp": "2019-07-08T09:28:20Z"
      }
    ]
  }
}